# Blender MTL File: 'None'
# Material Count: 1

newmtl field
	Ns 10.0000
	d 1.0000
	Tr 0.0000
	Tf 1.0000 1.0000 1.0000 
	illum 2
	Ka 0.5882 0.5882 0.5882
	Kd 0.5882 0.5882 0.5882
	Ks 0.0000 0.0000 0.0000
	Ke 0.0000 0.0000 0.0000
	map_Ka ..\\Assets\\Textures\\5657.jpg 
	map_Kd ..\\Assets\\Textures\\5657.jpg 
	map_bump ..\\Assets\\Textures\\5657.jpg 
