# Blender v2.74 (sub 0) OBJ File: ''
# www.blender.org
mtllib ..\\Assets\\MTL\\sphere.mtl
o sphere
v 0.000000 0.500000 -0.000000
v 0.250000 0.433000 -0.000000
v 0.433000 0.250000 -0.000000
v 0.500000 0.000000 0.000000
v 0.433000 -0.250000 0.000000
v 0.250000 -0.433000 0.000000
v 0.000000 -0.500000 0.000000
v 0.125000 0.433000 0.216500
v 0.216500 0.250000 0.375000
v 0.250000 0.000000 0.433000
v 0.216500 -0.250000 0.375000
v 0.125000 -0.433000 0.216500
v -0.125000 0.433000 0.216500
v -0.216500 0.250000 0.375000
v -0.250000 0.000000 0.433000
v -0.216500 -0.250000 0.375000
v -0.125000 -0.433000 0.216500
v -0.250000 0.433000 -0.000000
v -0.433000 0.250000 -0.000000
v -0.500000 0.000000 0.000000
v -0.433000 -0.250000 0.000000
v -0.250000 -0.433000 0.000000
v -0.125000 0.433000 -0.216500
v -0.216500 0.250000 -0.375000
v -0.250000 -0.000000 -0.433000
v -0.216500 -0.250000 -0.375000
v -0.125000 -0.433000 -0.216500
v 0.125000 0.433000 -0.216500
v 0.216500 0.250000 -0.375000
v 0.250000 -0.000000 -0.433000
v 0.216500 -0.250000 -0.375000
v 0.125000 -0.433000 -0.216500
vt 0.000000 0.000000
vt 0.166667 0.166667
vt 0.000000 0.166667
vt 0.166667 0.333333
vt 0.000000 0.333333
vt 0.166667 0.500000
vt 0.000000 0.500000
vt 0.166667 0.666667
vt 0.000000 0.666667
vt 0.166667 0.833333
vt 0.000000 0.833333
vt 0.166667 1.000000
vt 0.166667 0.000000
vt 0.333333 0.166667
vt 0.333333 0.333333
vt 0.333333 0.500000
vt 0.333333 0.666667
vt 0.333333 0.833333
vt 0.333333 1.000000
vt 0.333333 0.000000
vt 0.500000 0.166667
vt 0.500000 0.333333
vt 0.500000 0.500000
vt 0.500000 0.666667
vt 0.500000 0.833333
vt 0.500000 1.000000
vt 0.500000 0.000000
vt 0.666667 0.166667
vt 0.666667 0.333333
vt 0.666667 0.500000
vt 0.666667 0.666667
vt 0.666667 0.833333
vt 0.666667 1.000000
vt 0.666667 0.000000
vt 0.833333 0.166667
vt 0.833333 0.333333
vt 0.833333 0.500000
vt 0.833333 0.666667
vt 0.833333 0.833333
vt 0.833333 1.000000
vt 0.833333 0.000000
vt 1.000000 0.166667
vt 1.000000 0.333333
vt 1.000000 0.500000
vt 1.000000 0.666667
vt 1.000000 0.833333
vt 1.000000 1.000000
vn 0.256000 0.955300 0.147800
vn 0.654600 0.654700 0.378000
vn 0.843600 0.226100 0.487100
vn 0.843600 -0.226100 0.487100
vn 0.654600 -0.654700 0.378000
vn 0.256000 -0.955300 0.147800
vn 0.000000 0.955300 0.295600
vn 0.000000 0.654700 0.755900
vn 0.000000 0.226000 0.974100
vn 0.000000 -0.226000 0.974100
vn 0.000000 -0.654700 0.755900
vn 0.000000 -0.955300 0.295600
vn -0.256000 0.955300 0.147800
vn -0.654600 0.654700 0.378000
vn -0.843600 0.226100 0.487100
vn -0.843600 -0.226100 0.487100
vn -0.654600 -0.654700 0.378000
vn -0.256000 -0.955300 0.147800
vn -0.256000 0.955300 -0.147800
vn -0.654600 0.654700 -0.378000
vn -0.843600 0.226100 -0.487100
vn -0.843600 -0.226100 -0.487100
vn -0.654600 -0.654700 -0.378000
vn -0.256000 -0.955300 -0.147800
vn 0.000000 0.955300 -0.295600
vn 0.000000 0.654700 -0.755900
vn 0.000000 0.226000 -0.974100
vn 0.000000 -0.226000 -0.974100
vn 0.000000 -0.654700 -0.755900
vn 0.000000 -0.955300 -0.295600
vn 0.256000 0.955300 -0.147800
vn 0.654600 0.654700 -0.378000
vn 0.843600 0.226100 -0.487100
vn 0.843600 -0.226100 -0.487100
vn 0.654600 -0.654700 -0.378000
vn 0.256000 -0.955300 -0.147800
usemtl sphereDefault
s off
f 1/1/1 8/2/1 2/3/1
f 2/3/2 8/2/2 9/4/2 3/5/2
f 3/5/3 9/4/3 10/6/3 4/7/3
f 4/7/4 10/6/4 11/8/4 5/9/4
f 5/9/5 11/8/5 12/10/5 6/11/5
f 6/11/6 12/10/6 7/12/6
f 1/13/7 13/14/7 8/2/7
f 8/2/8 13/14/8 14/15/8 9/4/8
f 9/4/9 14/15/9 15/16/9 10/6/9
f 10/6/10 15/16/10 16/17/10 11/8/10
f 11/8/11 16/17/11 17/18/11 12/10/11
f 12/10/12 17/18/12 7/19/12
f 1/20/13 18/21/13 13/14/13
f 13/14/14 18/21/14 19/22/14 14/15/14
f 14/15/15 19/22/15 20/23/15 15/16/15
f 15/16/16 20/23/16 21/24/16 16/17/16
f 16/17/17 21/24/17 22/25/17 17/18/17
f 17/18/18 22/25/18 7/26/18
f 1/27/19 23/28/19 18/21/19
f 18/21/20 23/28/20 24/29/20 19/22/20
f 19/22/21 24/29/21 25/30/21 20/23/21
f 20/23/22 25/30/22 26/31/22 21/24/22
f 21/24/23 26/31/23 27/32/23 22/25/23
f 22/25/24 27/32/24 7/33/24
f 1/34/25 28/35/25 23/28/25
f 23/28/26 28/35/26 29/36/26 24/29/26
f 24/29/27 29/36/27 30/37/27 25/30/27
f 25/30/28 30/37/28 31/38/28 26/31/28
f 26/31/29 31/38/29 32/39/29 27/32/29
f 27/32/30 32/39/30 7/40/30
f 1/41/31 2/42/31 28/35/31
f 28/35/32 2/42/32 3/43/32 29/36/32
f 29/36/33 3/43/33 4/44/33 30/37/33
f 30/37/34 4/44/34 5/45/34 31/38/34
f 31/38/35 5/45/35 6/46/35 32/39/35
f 32/39/36 6/46/36 7/47/36
